
/*------------------------------------------------------------------------
    File        : custom.i
    Purpose     : 

    Syntax      :

    Description : 

    Author(s)   : 
    Created     : Mon Mar 27 13:16:45 EEST 2017
    Notes       :
  ----------------------------------------------------------------------*/

/* ***************************  Definitions  ************************** */


/* ********************  Preprocessor Definitions  ******************** */

&global-define LIBRARYINCLUD custom.i
{internal.p } 
/* ***************************  Main Block  *************************** */
